<svg xmlns="http://www.w3.org/2000/svg" xmlns:xlink="http://www.w3.org/1999/xlink" width="398" height="108" viewBox="0 0 398 108">
  <defs>
    <linearGradient id="linear-gradient" x1="0.5" x2="0.5" y2="1" gradientUnits="objectBoundingBox">
      <stop offset="0" stop-color="#2076bb"/>
      <stop offset="1" stop-color="#48b8e5"/>
    </linearGradient>
  </defs>
  <g id="Group_29" data-name="Group 29" transform="translate(-1268 1003)">
    <g id="Group_26" data-name="Group 26" transform="translate(47 -481)">
      <g id="Path_1" data-name="Path 1" transform="translate(-16.402 -19.364)" stroke-linejoin="round" fill="url(#linear-gradient)">
        <path d="M 1290.698974609375 -422.0112915039062 L 1288.551635742188 -443.0619201660156 L 1288.515991210938 -443.4115905761719 L 1288.1748046875 -443.4963989257812 L 1268.469604492188 -448.3952026367188 L 1311.82470703125 -466.028564453125 L 1290.698974609375 -422.0112915039062 Z" stroke="none"/>
        <path d="M 1310.813720703125 -465.0776062011719 L 1270.079467773438 -448.5102233886719 L 1288.29541015625 -443.9816284179688 C 1288.704711914062 -443.8798522949219 1289.006225585938 -443.5322570800781 1289.049072265625 -443.1126403808594 L 1291.016235351562 -423.8279418945312 L 1310.813720703125 -465.0776062011719 M 1312.835693359375 -466.9795532226562 L 1290.381713867188 -420.1946411132812 L 1288.05419921875 -443.0111694335938 L 1266.859741210938 -448.2802124023438 L 1312.835693359375 -466.9795532226562 Z" stroke="none" fill="#1f75ba"/>
      </g>
      <g id="Ellipse_7" data-name="Ellipse 7" transform="translate(1234 -509)" fill="none" stroke="#1f75ba" stroke-width="5">
        <circle cx="41.5" cy="41.5" r="41.5" stroke="none"/>
        <circle cx="41.5" cy="41.5" r="39" fill="none"/>
      </g>
      <g id="Ellipse_8" data-name="Ellipse 8" transform="translate(1221 -522)" fill="none" stroke="#1f75ba" stroke-linecap="round" stroke-width="4" stroke-dasharray="15">
        <circle cx="54" cy="54" r="54" stroke="none"/>
        <circle cx="54" cy="54" r="52" fill="none"/>
      </g>
    </g>
    <text id="My_Trunk_Line" data-name="My Trunk Line" transform="translate(1390 -934)" fill="#1f75ba" font-size="43" font-family="GoogleSans-Medium, Google Sans" font-weight="500"><tspan x="0" y="0">My Trunk Line</tspan></text>
  </g>
</svg>
